{
  "hash": "fd8fbdd72064a8b102ff62607f362576",
  "result": {
    "markdown": "---\ntitle: \"Données\"\n---\n\nLes données tabulaires utilisées ont été collectées par [Jeffrey Lancaster]() et sont issues de ce projet. Pour débuter, on va utiliser les données [d'Etienne Come](https://github.com/comeetie/got/tree/master/data)\n\nElles sont à disposition [ici](/donnees)\n\n\n## L'importation\n\nImport Dataset>import from..\n\n## L'importation (2)\n\nPour ne pas la refaire à chaque ouverture, j'ai copié le code\n\n\n::: {.cell}\n\n```{.r .cell-code}\nperso <- read.csv(\"D:/master/master_2022_2023/Donnees/out/perso_final.csv\", sep=\",\", stringsAsFactors=TRUE)\n```\n:::\n\n\nEt parce que \"D:/master\" n'appartient qu'à moi , je vais user d'un autre chemin. Celui de votre projet.\n\n\n\n::: {.cell}\n\n```{.r .cell-code}\nperso <- read.csv(\"donnees/perso_final.csv\", sep=\",\", stringsAsFactors=TRUE)\n```\n:::",
    "supporting": [
      "donnees_files"
    ],
    "filters": [
      "rmarkdown/pagebreak.lua"
    ],
    "includes": {},
    "engineDependencies": {},
    "preserve": {},
    "postProcess": true
  }
}